[
    {
        "Dia: ": 1,
        "Poblacion total (vivos)": 500,
        "Casos activos:": 15,
        "Susceptibles a enfermarse: ": 485,
        "Sanados de enfermedad (vivos): ": 0,
        "Fallecidos: ": 0
    },
    {
        "Dia: ": 2,
        "Poblacion total (vivos)": 500,
        "Casos activos:": 31,
        "Susceptibles a enfermarse: ": 469,
        "Sanados de enfermedad (vivos): ": 0,
        "Fallecidos: ": 0
    },
    {
        "Dia: ": 3,
        "Poblacion total (vivos)": 500,
        "Casos activos:": 57,
        "Susceptibles a enfermarse: ": 443,
        "Sanados de enfermedad (vivos): ": 0,
        "Fallecidos: ": 0
    },
    {
        "Dia: ": 4,
        "Poblacion total (vivos)": 500,
        "Casos activos:": 113,
        "Susceptibles a enfermarse: ": 385,
        "Sanados de enfermedad (vivos): ": 2,
        "Fallecidos: ": 0
    },
    {
        "Dia: ": 5,
        "Poblacion total (vivos)": 500,
        "Casos activos:": 187,
        "Susceptibles a enfermarse: ": 309,
        "Sanados de enfermedad (vivos): ": 4,
        "Fallecidos: ": 0
    },
    {
        "Dia: ": 6,
        "Poblacion total (vivos)": 500,
        "Casos activos:": 271,
        "Susceptibles a enfermarse: ": 221,
        "Sanados de enfermedad (vivos): ": 8,
        "Fallecidos: ": 0
    },
    {
        "Dia: ": 7,
        "Poblacion total (vivos)": 500,
        "Casos activos:": 363,
        "Susceptibles a enfermarse: ": 128,
        "Sanados de enfermedad (vivos): ": 9,
        "Fallecidos: ": 0
    },
    {
        "Dia: ": 8,
        "Poblacion total (vivos)": 500,
        "Casos activos:": 415,
        "Susceptibles a enfermarse: ": 75,
        "Sanados de enfermedad (vivos): ": 10,
        "Fallecidos: ": 0
    },
    {
        "Dia: ": 9,
        "Poblacion total (vivos)": 497,
        "Casos activos:": 445,
        "Susceptibles a enfermarse: ": 34,
        "Sanados de enfermedad (vivos): ": 18,
        "Fallecidos: ": 3
    },
    {
        "Dia: ": 10,
        "Poblacion total (vivos)": 497,
        "Casos activos:": 463,
        "Susceptibles a enfermarse: ": 16,
        "Sanados de enfermedad (vivos): ": 18,
        "Fallecidos: ": 3
    },
    {
        "Dia: ": 11,
        "Poblacion total (vivos)": 497,
        "Casos activos:": 465,
        "Susceptibles a enfermarse: ": 9,
        "Sanados de enfermedad (vivos): ": 23,
        "Fallecidos: ": 3
    },
    {
        "Dia: ": 12,
        "Poblacion total (vivos)": 494,
        "Casos activos:": 453,
        "Susceptibles a enfermarse: ": 5,
        "Sanados de enfermedad (vivos): ": 36,
        "Fallecidos: ": 6
    },
    {
        "Dia: ": 13,
        "Poblacion total (vivos)": 490,
        "Casos activos:": 428,
        "Susceptibles a enfermarse: ": 4,
        "Sanados de enfermedad (vivos): ": 58,
        "Fallecidos: ": 10
    },
    {
        "Dia: ": 14,
        "Poblacion total (vivos)": 483,
        "Casos activos:": 373,
        "Susceptibles a enfermarse: ": 3,
        "Sanados de enfermedad (vivos): ": 107,
        "Fallecidos: ": 17
    },
    {
        "Dia: ": 15,
        "Poblacion total (vivos)": 467,
        "Casos activos:": 301,
        "Susceptibles a enfermarse: ": 1,
        "Sanados de enfermedad (vivos): ": 165,
        "Fallecidos: ": 33
    },
    {
        "Dia: ": 16,
        "Poblacion total (vivos)": 451,
        "Casos activos:": 217,
        "Susceptibles a enfermarse: ": 1,
        "Sanados de enfermedad (vivos): ": 233,
        "Fallecidos: ": 49
    },
    {
        "Dia: ": 17,
        "Poblacion total (vivos)": 435,
        "Casos activos:": 125,
        "Susceptibles a enfermarse: ": 1,
        "Sanados de enfermedad (vivos): ": 309,
        "Fallecidos: ": 65
    },
    {
        "Dia: ": 18,
        "Poblacion total (vivos)": 428,
        "Casos activos:": 73,
        "Susceptibles a enfermarse: ": 1,
        "Sanados de enfermedad (vivos): ": 354,
        "Fallecidos: ": 72
    },
    {
        "Dia: ": 19,
        "Poblacion total (vivos)": 424,
        "Casos activos:": 33,
        "Susceptibles a enfermarse: ": 1,
        "Sanados de enfermedad (vivos): ": 390,
        "Fallecidos: ": 76
    },
    {
        "Dia: ": 20,
        "Poblacion total (vivos)": 421,
        "Casos activos:": 15,
        "Susceptibles a enfermarse: ": 1,
        "Sanados de enfermedad (vivos): ": 405,
        "Fallecidos: ": 79
    },
    {
        "Dia: ": 21,
        "Poblacion total (vivos)": 420,
        "Casos activos:": 8,
        "Susceptibles a enfermarse: ": 1,
        "Sanados de enfermedad (vivos): ": 411,
        "Fallecidos: ": 80
    },
    {
        "Dia: ": 22,
        "Poblacion total (vivos)": 418,
        "Casos activos:": 4,
        "Susceptibles a enfermarse: ": 1,
        "Sanados de enfermedad (vivos): ": 413,
        "Fallecidos: ": 82
    },
    {
        "Dia: ": 23,
        "Poblacion total (vivos)": 418,
        "Casos activos:": 3,
        "Susceptibles a enfermarse: ": 1,
        "Sanados de enfermedad (vivos): ": 414,
        "Fallecidos: ": 82
    },
    {
        "Dia: ": 24,
        "Poblacion total (vivos)": 417,
        "Casos activos:": 2,
        "Susceptibles a enfermarse: ": 1,
        "Sanados de enfermedad (vivos): ": 414,
        "Fallecidos: ": 83
    },
    {
        "Dia: ": 25,
        "Poblacion total (vivos)": 416,
        "Casos activos:": 0,
        "Susceptibles a enfermarse: ": 1,
        "Sanados de enfermedad (vivos): ": 415,
        "Fallecidos: ": 84
    },
    {
        "Dia: ": 26,
        "Poblacion total (vivos)": 416,
        "Casos activos:": 0,
        "Susceptibles a enfermarse: ": 1,
        "Sanados de enfermedad (vivos): ": 415,
        "Fallecidos: ": 84
    },
    {
        "Dia: ": 27,
        "Poblacion total (vivos)": 416,
        "Casos activos:": 0,
        "Susceptibles a enfermarse: ": 1,
        "Sanados de enfermedad (vivos): ": 415,
        "Fallecidos: ": 84
    },
    {
        "Dia: ": 28,
        "Poblacion total (vivos)": 416,
        "Casos activos:": 0,
        "Susceptibles a enfermarse: ": 1,
        "Sanados de enfermedad (vivos): ": 415,
        "Fallecidos: ": 84
    },
    {
        "Dia: ": 29,
        "Poblacion total (vivos)": 416,
        "Casos activos:": 0,
        "Susceptibles a enfermarse: ": 1,
        "Sanados de enfermedad (vivos): ": 415,
        "Fallecidos: ": 84
    }
]